com/claro/apisdk/dto/people/PeopleDTO$PeopleDTOBuilder.class
com/claro/apisdk/dto/GoogleGeoAutoComplete.class
com/claro/apisdk/dto/people/PeopleQuery$PeopleQueryBuilder.class
com/claro/apisdk/IFullNameApi.class
com/claro/apisdk/RestPeopleApi$1.class
com/claro/apisdk/dto/google/GoogleResultDTO.class
com/claro/apisdk/RestGoogleGeoApi$1.class
com/claro/apisdk/dto/google/GooglePlace.class
com/claro/apisdk/dto/GoogleGeoLoc.class
com/claro/apisdk/dto/people/email/PeopleEmailDTO$PeopleEmailDTOBuilder.class
com/claro/apisdk/CurrencyApi.class
com/claro/apisdk/RestGoogleTranslateApi.class
com/claro/apisdk/RestEthnicityApi.class
com/claro/apisdk/FullNameRequest.class
com/claro/apisdk/dto/google/CustomSearchRequest.class
com/claro/apisdk/RestApiConfig.class
com/claro/apisdk/RestPeopleApi.class
com/claro/apisdk/dto/people/EmailVerificationQuery$EmailVerificationQueryBuilder.class
com/claro/apisdk/dto/people/email/PeopleEmailsDTO.class
com/claro/apisdk/dto/google/GoogleCustomSearch.class
com/claro/apisdk/util/FullNameUtil.class
com/claro/apisdk/dto/google/GooglePlacesRequest.class
com/claro/apisdk/RestGoogleGeoApi.class
com/claro/apisdk/RestGenderApi.class
com/claro/apisdk/dto/rabbit/SocialNetworkType.class
com/claro/apisdk/LocationApi.class
com/claro/apisdk/RestPeopleApi$2.class
com/claro/apisdk/dto/people/VerificationResult.class
com/claro/apisdk/dto/google/GooglePlace$GooglePlaceBuilder.class
com/claro/apisdk/util/RestTemplateUtil.class
com/claro/apisdk/dto/google/CustomSearchRequest$CustomSearchRequestBuilder.class
com/claro/apisdk/util/Hash.class
com/claro/apisdk/dto/people/PeopleAPIRequestState.class
com/claro/apisdk/RestGoogleCustomSearchApi.class
com/claro/apisdk/dto/people/PeopleQueryResult$PeopleQueryResultBuilder.class
com/claro/apisdk/dto/rabbit/SocialLinkDto.class
com/claro/apisdk/dto/people/PeopleQueryResult.class
com/claro/apisdk/dto/people/PeopleQuery.class
com/claro/apisdk/dto/people/email/PeopleEmailDTO.class
com/claro/apisdk/dto/people/PeopleDTO.class
com/claro/apisdk/dto/people/ContactDiscoveryStatus.class
com/claro/apisdk/dto/people/EmailVerificationQuery.class
com/claro/apisdk/dto/people/email/PeopleEmailsDTO$PeopleEmailsDTOBuilder.class
